…
From the scrubbed data, I filtered to include only the sightings in the US. From this, I then found the frequency of sightings, as grouped by state:


```r
usstate %>% arrange(desc(count))
```

```
## # A tibble: 52 x 2
##    state count
##    <chr> <int>
##  1    ca  8912
##  2    wa  3966
##  3    fl  3835
##  4    tx  3447
##  5    ny  2980
##  6    il  2499
##  7    az  2414
##  8    pa  2366
##  9    oh  2275
## 10    mi  1836
## # ... with 42 more rows
```
…
